<svg width="200" height="150" xmlns="http://www.w3.org/2000/svg">
 <g>
  <title>Layer 1</title>
  <path stroke="#000000" fill="#fcf2f2" d="m8.4125,27.765l30.73494,0l0,0l46.10225,0l107.57278,0l0,34.44852l0,0l0,14.76377l0,9.84254l-107.57278,0l-76.53879,28.94516l30.43654,-28.94516l-30.73494,0l0,-9.84254l0,-14.76377l0,0l0,-34.44852z" id="svg_1"/>
 </g>
</svg>