<svg width="640" height="480" xmlns="http://www.w3.org/2000/svg">
 <defs>
  <linearGradient id="svg_1">
   <stop stop-color="#13d110" offset="0"/>
   <stop stop-color="#ec2eef" offset="1"/>
  </linearGradient>
  <linearGradient id="svg_3">
   <stop offset="0" stop-color="#13d110"/>
   <stop offset="1" stop-color="#ec2eef"/>
  </linearGradient>
 </defs>
 <g>
  <rect id="svg_4" height="215" width="88" y="263" x="210" stroke-linecap="null" stroke-linejoin="null" stroke-dasharray="null" stroke-width="5" stroke="#a3afa3" fill="#a3afa3"/>
  <rect stroke="#a3afa3" id="svg_5" height="176" width="192" y="301" x="303" stroke-linecap="null" stroke-linejoin="null" stroke-dasharray="null" stroke-width="5" fill="#a3afa3"/>
  <rect id="svg_6" height="0" width="12" y="384" x="409" stroke-linecap="null" stroke-linejoin="null" stroke-dasharray="null" stroke-width="5" stroke="#53c132" fill="#13d110"/>
  <rect id="svg_7" height="215" width="88" y="261.5" x="500.5" stroke-linecap="null" stroke-linejoin="null" stroke-dasharray="null" stroke-width="5" stroke="#a3afa3" fill="#a3afa3"/>
  <rect id="svg_8" height="24" width="20" y="235" x="210" stroke-linecap="null" stroke-linejoin="null" stroke-dasharray="null" stroke-width="5" stroke="#a3afa3" fill="#a3afa3"/>
  <rect id="svg_9" height="24" width="20" y="235" x="278.5" stroke-linecap="null" stroke-linejoin="null" stroke-dasharray="null" stroke-width="5" stroke="#a3afa3" fill="#a3afa3"/>
  <rect id="svg_11" height="24" width="20" y="234" x="500.5" stroke-linecap="null" stroke-linejoin="null" stroke-dasharray="null" stroke-width="5" stroke="#a3afa3" fill="#a3afa3"/>
  <rect id="svg_12" height="24" width="20" y="234" x="568.5" stroke-linecap="null" stroke-linejoin="null" stroke-dasharray="null" stroke-width="5" stroke="#a3afa3" fill="#a3afa3"/>
  <path id="svg_13" d="m351,478l0,-63l21,-14l34,-1l14,15l-2,64l-67,-1z" stroke-linecap="null" stroke-linejoin="null" stroke-dasharray="null" stroke-width="5" stroke="#7f0000" fill="#7f0000"/>
 </g>
</svg>