<svg width="640" height="480" xmlns="http://www.w3.org/2000/svg">
 <g>
  <title>Layer 1</title>
  <g id="svg_21">
   <path id="svg_5" d="m318.80322,159.45599l5.78558,0c2.53442,0.3456 5.0304,0.88319 7.5264,1.4464c-3.776,0.30721 -7.50079,0.98561 -11.2384,1.6512c4.97922,1.43361 10.25281,1.9328 14.95041,4.21121c3.1232,1.68959 6.19522,3.49438 9.35681,5.12c1.15201,-0.8192 2.30399,-1.6384 3.46878,-2.44481c6.5408,5.632 11.37921,13.2224 13.8624,21.47841c6.47681,2.34239 12.94083,5.8624 16.66562,11.8784c2.79037,4.17279 4.17279,9.088 4.9408,14.00319l0,5.58081c-1.51041,7.39839 -4.672,14.92479 -11.04639,19.41759c-6.91202,5.632 -16.75522,7.0656 -25.1008,4.09601c5.51678,-0.32001 11.328,-2.11201 14.4256,-7.03999c7.30878,-8.34561 6.9248,-23.07841 -2.07361,-30.02881c-11.71201,-7.68001 -25.85599,-11.34081 -39.8208,-10.88c-0.2944,-5.00479 -0.896,-10.0096 -1.20322,-15.01439c-1.35678,-0.1792 -2.72638,-0.34561 -4.08319,-0.51201c-0.93439,4.92801 -1.6384,9.88161 -2.06079,14.87361c-5.0304,0.14079 -7.47519,5.37599 -12.36481,5.6832c-11.19998,2.1248 -22.61758,7.12959 -29.45279,16.6144c-3.85281,5.19681 -3.73761,11.99359 -2.7648,18.0992c-9.9072,-8.21761 -12.6976,-23.11679 -7.23199,-34.61119c3.89117,-7.96161 11.62238,-14.1568 20.54398,-15.23201c5.64481,-15.5392 20.37759,-27.0336 36.91522,-28.3904z" fill="#72d115"/>
   <path id="svg_7" d="m332.1152,160.90239c6.08002,1.4976 11.85281,4.3392 16.5376,8.5376c-1.16479,0.80641 -2.31677,1.62561 -3.46878,2.44481c-3.16159,-1.62561 -6.23361,-3.4304 -9.35681,-5.12c-4.6976,-2.27841 -9.97119,-2.7776 -14.95041,-4.21121c3.73761,-0.66559 7.4624,-1.34399 11.2384,-1.6512z" fill="#84de2d"/>
   <path id="svg_8" d="m315.21921,182.41919c1.35681,0.1664 2.72641,0.33281 4.08319,0.51201c0.30722,5.00479 0.90881,10.0096 1.20322,15.01439c0.14081,4.992 0.1152,9.98401 0.19199,14.9888c0.0256,5.50401 -0.1152,11.00801 0.16641,16.51201c0.21759,2.8672 0.46078,5.7216 0.52481,8.60161c-0.17923,1.67679 -0.34561,3.35358 -0.49921,5.04318c0.05121,1.7664 0.14078,3.53281 0.2688,5.29921c0.81921,10.6624 1.67679,21.38881 4.50562,31.744c-5.38882,4.27521 -7.38562,11.04639 -8.84482,17.4592c-0.12799,-2.64963 -0.32001,-5.29922 -0.5376,-7.94879c-4.03201,2.35519 -5.31201,6.75836 -5.63202,11.13599c-1.12637,-1.08798 -2.23999,-2.16318 -3.36639,-3.2384c-2.41919,2.98239 -1.216,6.6944 -0.384,10.0224c-1.24158,-1.31839 -2.49597,-2.62399 -3.73758,-3.94241c-0.40961,0.47363 -1.25439,1.3952 -1.664,1.85602c0.0896,1.83038 0.25598,3.6608 0.34558,5.504c-3.73758,0.10242 -7.4624,0.37119 -11.18719,0.6528c2.4704,-3.60959 4.6976,-7.38559 6.55359,-11.35361c7.936,-16.78079 10.2912,-35.55838 12.44162,-53.81119c-0.15359,-2.496 0.832,-5.56801 -1.15201,-7.5648c-5.78558,-6.93761 -14.4256,-10.4192 -21.36319,-16.0128c-2.2272,-1.80479 -4.3392,-3.7888 -6.0928,-6.0672c0.39679,-1.77919 2.26559,-2.7776 3.8656,-1.71519c4.03201,2.0096 7.65439,4.72319 11.54559,6.9888c4.608,2.8416 9.26721,5.64479 14.32321,7.64159c0.75519,-4.8512 0.95999,-9.76639 1.04959,-14.68159c0.28162,-5.92639 0.9856,-11.84 1.33121,-17.76639c0.42239,-4.992 1.1264,-9.9456 2.06079,-14.87361z" fill="#c07c10"/>
   <path id="svg_9" d="m282.20801,190.304c7.168,-3.81441 18.3808,-0.26881 21.22241,7.7184c-3.0976,-0.9472 -5.9136,-2.5856 -8.72961,-4.1472c-3.84,-2.1248 -8.34558,-2.34241 -12.4928,-3.5712z" fill="#82dd2a"/>
   <path id="svg_10" d="m300.79361,202.976c4.88962,-0.30721 7.33441,-5.5424 12.36481,-5.6832c-0.34561,5.92639 -1.04959,11.84 -1.33121,17.76639c-5.8624,0.40961 -10.86719,3.52 -15.3728,7.04001c-3.8912,-2.26561 -7.51358,-4.9792 -11.54559,-6.9888c-1.60001,-1.06241 -3.46881,-0.064 -3.8656,1.71519c1.7536,2.2784 3.8656,4.26241 6.0928,6.0672c-0.832,3.34081 -2.61121,6.912 -1.13919,10.34241c1.35678,4.1344 5.2608,6.48959 8.61438,8.8448c-8.66559,3.54559 -18.84158,1.34398 -26.03519,-4.39041c-0.97281,-6.10561 -1.08801,-12.90239 2.7648,-18.0992c6.83521,-9.4848 18.25281,-14.48959 29.45279,-16.6144z" fill="#65bd10"/>
   <path id="svg_11" d="m320.50562,197.94559c13.96481,-0.4608 28.1088,3.2 39.8208,10.88c8.99841,6.95039 9.38239,21.6832 2.07361,30.02881c-3.0976,4.92798 -8.90881,6.71999 -14.4256,7.03999c-2.06082,-0.8448 -3.9808,-1.98399 -5.93921,-3.0464c-6.3616,3.6096 -13.5936,5.29919 -20.8768,5.5424c-0.12802,-1.7664 -0.21759,-3.53281 -0.2688,-5.29921c8.8064,-0.2688 17.16479,-5.04318 21.63199,-12.65919c1.20322,-2.62401 0.79361,-5.6192 0.99841,-8.42239c1.49759,-1.6512 4.62079,-4.10881 2.04797,-6.2464c-2.13757,0.58879 -4.1088,1.66399 -5.99039,2.81599c-5.9776,-2.81599 -12.36478,-4.6208 -18.88,-5.64481c-0.07678,-5.00479 -0.05118,-9.9968 -0.19199,-14.9888z" fill="#66be10"/>
   <path id="svg_12" d="m320.6976,212.93439c6.51523,1.024 12.9024,2.82881 18.88,5.64481c-6.0672,3.8912 -12.12161,7.8848 -18.71359,10.8672c-0.28162,-5.504 -0.14081,-11.008 -0.16641,-16.51201z" fill="#58aa0a"/>
   <path id="svg_13" d="m296.45441,222.0992c4.50562,-3.52 9.51041,-6.6304 15.3728,-7.04001c-0.0896,4.91521 -0.2944,9.8304 -1.04959,14.68159c-5.056,-1.9968 -9.71521,-4.79999 -14.32321,-7.64159z" fill="#57a90a"/>
   <path id="svg_14" d="m339.57761,218.57919c1.88159,-1.15201 3.85281,-2.2272 5.99039,-2.81599c2.57281,2.13759 -0.55038,4.5952 -2.04797,6.2464c-7.0784,5.75999 -15.4368,9.77919 -22.1312,16.03841c-0.06403,-2.88 -0.30722,-5.73441 -0.52481,-8.60161c6.59198,-2.98241 12.64639,-6.976 18.71359,-10.8672z" fill="#af710f"/>
   <path id="svg_15" d="m321.38882,238.048c6.6944,-6.25922 15.0528,-10.27841 22.1312,-16.03841c-0.2048,2.80319 0.2048,5.79839 -0.99841,8.42239c-4.46719,7.61601 -12.82559,12.3904 -21.63199,12.65919c0.15359,-1.68961 0.31998,-3.36639 0.49921,-5.04318z" fill="#5bae0b"/>
   <path id="svg_16" d="m287.13602,222.89279c6.93759,5.5936 15.57761,9.0752 21.36319,16.0128c1.98401,1.9968 0.99841,5.0688 1.15201,7.5648c-4.12161,-1.3952 -8.01279,-3.392 -11.5968,-5.84961c-0.8576,0.3712 -2.5856,1.08801 -3.44321,1.45921c-3.35358,-2.35521 -7.2576,-4.7104 -8.61438,-8.8448c-1.47202,-3.4304 0.30719,-7.0016 1.13919,-10.34241z" fill="#5cb00c"/>
   <path id="svg_18" d="m316.81921,297.5936c1.4592,-6.41281 3.45599,-13.18399 8.84482,-17.4592c1.06238,3.94238 2.26559,7.84637 3.69919,11.67358c-1.58722,1.728 -3.36639,3.35361 -4.53122,5.4144c-0.448,2.29123 -0.24319,4.63361 -0.21759,6.95041c-1.0112,-1.68961 -2.06079,-3.35358 -3.11038,-5.01758c-2.45761,3.71198 -2.12482,8.49918 -4.48001,12.30078c-0.52481,0.2048 -1.5488,0.6272 -2.06079,0.832c-4.31363,-0.9472 -8.70401,-1.49762 -13.12003,-1.3056c-0.0896,-1.8432 -0.25598,-3.67361 -0.34558,-5.504c0.40961,-0.46082 1.25439,-1.38239 1.664,-1.85602c1.24161,1.31842 2.496,2.62402 3.73758,3.94241c-0.832,-3.328 -2.03519,-7.04001 0.384,-10.0224c1.1264,1.07523 2.24002,2.15042 3.36639,3.2384c0.32001,-4.37762 1.60001,-8.78079 5.63202,-11.13599c0.21759,2.64957 0.40961,5.29916 0.5376,7.94879z" fill="#a76b0a"/>
   <path id="svg_19" d="m324.832,297.22238c1.16483,-2.06079 2.944,-3.6864 4.53122,-5.4144c1.02399,2.56 2.27838,5.04321 3.69919,7.42401c2.3168,4.03198 5.18399,7.7056 8.15359,11.26398c-8.03839,0.07681 -16.55038,-2.75198 -24.19199,0.96002c2.35519,-3.80161 2.0224,-8.58881 4.48001,-12.30078c1.04959,1.664 2.09918,3.32797 3.11038,5.01758c-0.0256,-2.3168 -0.23041,-4.65918 0.21759,-6.95041z" fill="#986105"/>
   <path id="svg_20" d="m333.06241,299.23199c9.17761,0.30719 18.4064,2.0224 26.6496,6.19519c7.02719,1.88159 15.20639,0.97281 21.33762,5.56799c0.85757,1.8688 -0.10242,4.09601 -2.16321,4.53122c-12.5184,5.01761 -26.35519,3.46878 -39.50079,3.008c-14.0928,0.69119 -28.32642,1.43359 -42.34241,-0.67841c-4.6976,-0.4736 -9.35681,0.8064 -14.05441,0.67841c-5.2352,-0.1152 -10.45758,-0.66562 -15.6416,-1.40799c-4.00638,-0.81921 -8.60159,-1.4592 -11.22559,-4.97922l0,-1.728c6.82239,-4.608 15.21921,-4.17279 22.97601,-5.45282c5.90079,-2.06079 11.7504,-4.51837 18.11197,-4.68478c-1.85599,3.96802 -4.08319,7.74402 -6.55359,11.35361c3.72479,-0.28162 7.44962,-0.55038 11.18719,-0.6528c4.41602,-0.19202 8.8064,0.3584 13.12003,1.3056c0.51199,-0.2048 1.53598,-0.6272 2.06079,-0.832c7.6416,-3.71201 16.15359,-0.88321 24.19199,-0.96002c-2.9696,-3.55838 -5.83679,-7.23199 -8.15359,-11.26398z" fill="#a6a6a6"/>
  </g>
 </g>
</svg>