<svg width="640" height="480" xmlns="http://www.w3.org/2000/svg">
 <g>
  <title>Layer 1</title>
  <path fill="#efef1f" stroke-width="5" d="m305.009918,211.199966l-21.588959,7.318192l0,-14.636353l21.588959,7.318161zm-15.673798,-36.063232l-9.833649,19.730453l-10.859039,-10.351593l20.692688,-9.37886zm-37.826141,-14.936737l7.67691,20.580231l-15.353821,0l7.67691,-20.580231zm-37.831055,14.936737l20.695984,9.37886l-10.857391,10.351593l-9.838593,-19.730453zm-15.66893,36.063232l21.589066,-7.318161l0,14.636353l-21.589066,-7.318192zm15.66893,36.058563l9.838593,-19.725708l10.857391,10.351547l-20.695984,9.374161zm37.831055,14.941452l-7.67691,-20.580261l15.353821,0l-7.67691,20.580261zm37.826141,-14.941452l-20.692688,-9.374161l10.859039,-10.351547l9.833649,19.725708zm-64.576141,-36.058563l0,0c0,-14.083801 11.975784,-25.499969 26.749985,-25.499969c14.774216,0 26.749985,11.416168 26.749985,25.499969c0,14.083847 -11.975769,25.498474 -26.749985,25.498474c-14.7742,0 -26.749985,-11.414627 -26.749985,-25.498474z" id="svg_1" stroke="#000000"/>
 </g>
</svg>